<svg width="43" height="32" viewBox="0 0 43 32" fill="none" xmlns="http://www.w3.org/2000/svg">
    <path d="M38.98 2.50706L39.1858 2.33106H38.915H4.21384H3.94305L4.14885 2.50706L21.4994 17.3456L21.5644 17.4011L21.6294 17.3456L38.98 2.50706ZM2.49606 4.0298L2.33106 3.8887V4.1058V28.7136C2.33106 29.237 2.763 29.6689 3.28644 29.6689H39.3922C39.9157 29.6689 40.3476 29.237 40.3476 28.7136V4.49297V4.27603L40.1827 4.41693L22.2738 19.7146L22.2736 19.7144L22.2708 19.7172L22.2653 19.721L22.2648 19.7213C22.2618 19.7233 22.2569 19.7266 22.2521 19.73C22.2479 19.7331 22.2416 19.7379 22.235 19.7441L22.2293 19.748C22.2263 19.75 22.2211 19.7534 22.2161 19.7571C22.2133 19.7591 22.2097 19.7618 22.2057 19.7652C22.1967 19.771 22.1886 19.7758 22.1793 19.7814L22.1789 19.7817C22.1677 19.7884 22.1548 19.7961 22.1392 19.8065L22.131 19.812L22.1309 19.8121C22.1265 19.8144 22.1202 19.8181 22.1132 19.8231L22.0261 19.8667C22.0229 19.8677 22.0201 19.8686 22.0178 19.8695C22.0167 19.8699 22.0157 19.8703 22.0146 19.8707H22.009L21.9879 19.8813C21.9619 19.8943 21.9421 19.9014 21.9196 19.909C21.9151 19.9099 21.9111 19.9109 21.9081 19.9117C21.9024 19.9133 21.8967 19.9151 21.8937 19.9161C21.8576 19.9183 21.8245 19.9287 21.8025 19.936C21.8003 19.9364 21.7982 19.9369 21.7963 19.9374C21.7943 19.9378 21.7926 19.9383 21.7911 19.9387C21.786 19.9401 21.781 19.9417 21.7778 19.9428H21.7733L21.7579 19.9479C21.7337 19.956 21.71 19.9608 21.6995 19.9608H21.6994H21.6994H21.6993H21.6993H21.6992H21.6992H21.6991H21.6991H21.699H21.699H21.6989H21.6989H21.6988H21.6988H21.6987H21.6986H21.6986H21.6985H21.6985H21.6984H21.6984H21.6983H21.6983H21.6982H21.6982H21.6981H21.6981H21.698H21.698H21.6979H21.6979H21.6978H21.6978H21.6977H21.6976H21.6976H21.6975H21.6975H21.6974H21.6974H21.6973H21.6973H21.6972H21.6972H21.6971H21.6971H21.697H21.697H21.6969H21.6969H21.6968H21.6967H21.6967H21.6966H21.6966H21.6965H21.6965H21.6964H21.6964H21.6963H21.6963H21.6962H21.6962H21.6961H21.6961H21.696H21.696H21.6959H21.6959H21.6958H21.6957H21.6957H21.6956H21.6956H21.6955H21.6955H21.6954H21.6954H21.6953H21.6953H21.6952H21.6952H21.6951H21.6951H21.695H21.695H21.6949H21.6948H21.6948H21.6947H21.6947H21.6946H21.6946H21.6945H21.6945H21.6944H21.6944H21.6943H21.6943H21.6942H21.6942H21.6941H21.6941H21.694H21.694H21.6939H21.6938H21.6938H21.6937H21.6937H21.6936H21.6936H21.6935H21.6935H21.6934H21.6934H21.6933H21.6933H21.6932H21.6932H21.6931H21.6931H21.693H21.6929H21.6929H21.6928H21.6928H21.6927H21.6927H21.6926H21.6926H21.6925H21.6925H21.6924H21.6924H21.6923H21.6923H21.6922H21.6922H21.6921H21.6921H21.692H21.6919H21.6919H21.6918H21.6918H21.6917H21.6917H21.6916H21.6916H21.6915H21.6915H21.6914H21.6914H21.6913H21.6913H21.6912H21.6912H21.6911H21.691H21.691H21.6909H21.6909H21.6908H21.6908H21.6907H21.6907H21.6906H21.6906H21.6905H21.6905H21.6904H21.6904H21.6903H21.6903H21.6902H21.6902H21.6901H21.69H21.69H21.6899H21.6899H21.6898H21.6898H21.6897H21.6897H21.6896H21.6896H21.6895H21.6895H21.6894H21.6894H21.6893H21.6893H21.6892H21.6891H21.6891H21.689H21.689H21.6889H21.6889H21.6888H21.6888H21.6887H21.6887H21.6886H21.6886H21.6885H21.6885H21.6884H21.6884H21.6883H21.6883H21.6882H21.6881H21.6881H21.688H21.688H21.6879H21.6879H21.6878H21.6878H21.6877H21.6877H21.6876H21.6876H21.6875H21.6875H21.6874H21.6874H21.6873H21.6873H21.6872H21.6871H21.6871H21.687H21.687H21.6869H21.6869H21.6868H21.6868H21.6867H21.6867H21.6866H21.6866H21.6865H21.6865H21.6864H21.6864H21.6863H21.6862H21.6862H21.6861H21.6861H21.686H21.686H21.6859H21.6859H21.6858H21.6858H21.6857H21.6857H21.6856H21.6856H21.6855H21.6855H21.6854H21.6854H21.6853H21.6852H21.6852H21.6851H21.6851H21.685H21.685H21.6849H21.6849H21.6848H21.6848H21.6847H21.6847H21.6846H21.6846H21.6845H21.6845H21.6844H21.6843H21.6843H21.6842H21.6842H21.6841H21.6841H21.684H21.684H21.6839H21.6839H21.6838H21.6838H21.6837H21.6837H21.6836H21.6836H21.6835H21.6835H21.6834H21.6833H21.6833H21.6832H21.6832H21.6831H21.6831H21.683H21.683H21.6829H21.6829H21.6828H21.6828H21.6827H21.6827H21.6826H21.6826H21.6825H21.6824H21.6824H21.6823H21.6823H21.6822H21.6822H21.6821H21.6821H21.682H21.682H21.6819H21.6819H21.6818H21.6818H21.6817H21.6817H21.6816H21.6816H21.6815H21.6814H21.6814H21.6813H21.6813H21.6812H21.6812H21.6811H21.6811H21.681H21.681H21.6809H21.6809H21.6808H21.6808H21.6807H21.6807H21.6806H21.6805H21.6805H21.6804H21.6804H21.6803H21.6803H21.6802H21.6802H21.6801H21.6801H21.68H21.68H21.6799H21.6799H21.6798H21.6798H21.6797H21.6797H21.6796H21.6795H21.6795H21.6794H21.6794H21.6793H21.6793H21.6792H21.6792H21.6791H21.6791H21.679H21.679H21.6789H21.6789H21.6788H21.6788H21.6787H21.6786H21.6786H21.6785H21.6785H21.6784H21.6784H21.6783H21.6783H21.6782H21.6782H21.6781H21.6781H21.678H21.678H21.6779H21.6779H21.6778H21.6778H21.6777H21.6776H21.6776H21.6775H21.6775H21.6774H21.6774H21.6773H21.6773H21.6772H21.6772H21.6771H21.6771H21.677H21.677H21.6769H21.6769H21.6768H21.6768H21.6767H21.6766H21.6766H21.6765H21.6765H21.6764H21.6764H21.6763H21.6763H21.6762H21.6762H21.6761H21.6761H21.676H21.676H21.6759H21.6759H21.6758H21.6757H21.6757H21.6756H21.6756H21.6755H21.6755H21.6754H21.6754H21.6753H21.6753H21.6752H21.6752H21.6751H21.6751H21.675H21.675H21.6749H21.6749H21.6748H21.6747H21.6747H21.6746H21.6746H21.6745H21.6745H21.6744H21.6744H21.6743H21.6743H21.6742H21.6742H21.6741H21.6741H21.674H21.674H21.6739H21.6738H21.6738H21.6737H21.6737H21.6736H21.6736H21.6735H21.6735H21.6734H21.6734H21.6733H21.6733H21.6732H21.6732H21.6731H21.6731H21.673H21.673H21.6729H21.6728H21.6728H21.6727H21.6727H21.6726H21.6726H21.6725H21.6725H21.6602L21.6482 19.9638C21.6265 19.9692 21.5947 19.9698 21.5554 19.9698C21.544 19.9698 21.5296 19.9683 21.5079 19.9659L21.5057 19.9656C21.487 19.9636 21.462 19.9608 21.4384 19.9608H21.4383H21.4383H21.4382H21.4382H21.4381H21.4381H21.438H21.438H21.4379H21.4378H21.4378H21.4377H21.4377H21.4376H21.4376H21.4375H21.4375H21.4374H21.4374H21.4373H21.4373H21.4372H21.4372H21.4371H21.4371H21.437H21.437H21.4369H21.4368H21.4368H21.4367H21.4367H21.4366H21.4366H21.4365H21.4365H21.4364H21.4364H21.4363H21.4363H21.4362H21.4362H21.4361H21.4361H21.436H21.436H21.4359H21.4358H21.4358H21.4357H21.4357H21.4356H21.4356H21.4355H21.4355H21.4354H21.4354H21.4353H21.4353H21.4352H21.4352H21.4351H21.4351H21.435H21.4349H21.4349H21.4348H21.4348H21.4347H21.4347H21.4346H21.4346H21.4345H21.4345H21.4344H21.4344H21.4343H21.4343H21.4342H21.4342H21.4341H21.4341H21.434H21.4339H21.4339H21.4338H21.4338H21.4337H21.4337H21.4336H21.4336H21.4335H21.4335H21.4334H21.4334H21.4333H21.4333H21.4332H21.4332H21.4331H21.433H21.433H21.4329H21.4329H21.4328H21.4328H21.4327H21.4327H21.4326H21.4326H21.4325H21.4325H21.4324H21.4324H21.4323H21.4323H21.4322H21.4322H21.4321H21.432H21.432H21.4319H21.4319H21.4318H21.4318H21.4317H21.4317H21.4316H21.4316H21.4315H21.4315H21.4314H21.4314H21.4313H21.4313H21.4312H21.4311H21.4311H21.431H21.431H21.4309H21.4309H21.4308H21.4308H21.4307H21.4307H21.4306H21.4306H21.4305H21.4305H21.4304H21.4304H21.4303H21.4303H21.4302H21.4301H21.4301H21.43H21.43H21.4299H21.4299H21.4298H21.4298H21.4297H21.4297H21.4296H21.4296H21.4295H21.4295H21.4294H21.4294H21.4293H21.4292H21.4292H21.4291H21.4291H21.429H21.429H21.4289H21.4289H21.4288H21.4288H21.4287H21.4287H21.4286H21.4286H21.4285H21.4285H21.4284H21.4284H21.4283H21.4282H21.4282H21.4281H21.4281H21.428H21.428H21.4279H21.4279H21.4278H21.4278H21.4277H21.4277H21.4276H21.4276H21.4275H21.4275H21.4274H21.4274H21.4273H21.4272H21.4272H21.4271H21.4271H21.427H21.427H21.4269H21.4269H21.4268H21.4268H21.4267H21.4267H21.4266H21.4266H21.4265H21.4265H21.4264H21.4263H21.4263H21.4262H21.4262H21.4261H21.4261H21.426H21.426H21.4259H21.4259H21.4258H21.4258H21.4257H21.4257H21.4256H21.4256H21.4255H21.4255H21.4254H21.4253H21.4253H21.4252H21.4252H21.4251H21.4251H21.425C21.4073 19.9564 21.3906 19.9542 21.3805 19.9528C21.3625 19.9502 21.3563 19.949 21.3529 19.9479L21.3376 19.9428H21.333C21.3299 19.9417 21.3249 19.9401 21.3198 19.9387C21.3164 19.9378 21.3119 19.9367 21.3067 19.9357C21.3018 19.9348 21.2943 19.9338 21.2853 19.9338C21.2774 19.9338 21.2663 19.931 21.2359 19.9209L21.2205 19.9158H21.216C21.2128 19.9147 21.2078 19.9131 21.2027 19.9117C21.1994 19.9108 21.1949 19.9096 21.1897 19.9087C21.189 19.9086 21.1883 19.9085 21.1875 19.9083C21.1803 19.9061 21.1724 19.9029 21.1618 19.8979C21.1601 19.8972 21.1582 19.8963 21.1561 19.8953C21.1448 19.89 21.127 19.8816 21.1098 19.8759L21.1023 19.8734C21.0996 19.8721 21.0964 19.8708 21.0931 19.8695C21.0908 19.8686 21.088 19.8677 21.0848 19.8667L20.9976 19.8231C20.9907 19.8181 20.9844 19.8144 20.98 19.8121L20.9702 19.8023L20.9478 19.7948L20.9478 19.7948C20.9473 19.7947 20.945 19.7939 20.9375 19.7886C20.9341 19.7863 20.9308 19.7839 20.9262 19.7805L20.9224 19.7776C20.9203 19.7761 20.9181 19.7744 20.9157 19.7727C20.9126 19.7705 20.9094 19.7682 20.9059 19.7658C20.9016 19.7621 20.8977 19.7592 20.8948 19.7571C20.89 19.7536 20.8851 19.7503 20.882 19.7483L20.8816 19.748L20.8758 19.7441C20.8693 19.7379 20.863 19.7331 20.8588 19.73C20.854 19.7266 20.8491 19.7233 20.846 19.7213L20.8456 19.721L20.8401 19.7173L20.8371 19.7147L2.49606 4.0298ZM3.28644 0.1H39.3922C41.1468 0.1 42.5787 1.53187 42.5787 3.28644V28.7136C42.5787 30.4681 41.1468 31.9 39.3922 31.9H3.28644C1.53187 31.9 0.1 30.4681 0.1 28.7136V3.28644C0.1 1.53187 1.53187 0.1 3.28644 0.1Z" fill="white" stroke="white" stroke-width="0.2"/>
</svg>
